{
  "link_number": 4, 
  "nodelist": [
    {
      "merge_dimensions": "none", 
      "inputs": [], 
      "required_cores": null, 
      "outputs": [
        {
          "datatype": "Int", 
          "suboutputs": [], 
          "preferred_types": [], 
          "id": "output"
        }
      ], 
      "tool": [
        "fastr.Source", 
        "1.0"
      ], 
      "required_time": null, 
      "class": "SourceNode", 
      "required_memory": null, 
      "id": "source"
    }, 
    {
      "merge_dimensions": "none", 
      "inputs": [
        {
          "datatype": "Int", 
          "input_group": "default", 
          "id": "left_hand"
        }, 
        {
          "datatype": "Int", 
          "input_group": "default", 
          "id": "right_hand"
        }
      ], 
      "required_cores": null, 
      "outputs": [
        {
          "datatype": "Int", 
          "suboutputs": [], 
          "preferred_types": [], 
          "id": "result"
        }
      ], 
      "tool": [
        "fastr.math.AddInt", 
        "0.1"
      ], 
      "required_time": null, 
      "class": "Node", 
      "required_memory": null, 
      "id": "add"
    }, 
    {
      "merge_dimensions": "none", 
      "inputs": [], 
      "required_cores": null, 
      "outputs": [
        {
          "datatype": "Int", 
          "suboutputs": [], 
          "preferred_types": [], 
          "id": "output"
        }
      ], 
      "tool": [
        "fastr.Source", 
        "1.0"
      ], 
      "required_time": null, 
      "class": "ConstantNode", 
      "required_memory": null, 
      "data": [
        [
          [
            "id_0"
          ], 
          [
            "6"
          ]
        ], 
        [
          [
            "id_1"
          ], 
          [
            "7"
          ]
        ], 
        [
          [
            "id_2"
          ], 
          [
            "8"
          ]
        ], 
        [
          [
            "id_3"
          ], 
          [
            "9"
          ]
        ], 
        [
          [
            "id_4"
          ], 
          [
            "10"
          ]
        ]
      ], 
      "id": "const_add_left_hand_1"
    }, 
    {
      "merge_dimensions": "none", 
      "inputs": [], 
      "required_cores": null, 
      "outputs": [
        {
          "datatype": "Int", 
          "suboutputs": [], 
          "preferred_types": [], 
          "id": "output"
        }
      ], 
      "tool": [
        "fastr.Source", 
        "1.0"
      ], 
      "required_time": null, 
      "class": "ConstantNode", 
      "required_memory": null, 
      "data": [
        [
          [
            "id_0"
          ], 
          [
            "10", 
            "20"
          ]
        ]
      ], 
      "id": "const_add_right_hand_0"
    }, 
    {
      "merge_dimensions": "none", 
      "inputs": [
        {
          "datatype": "Int", 
          "input_group": "default", 
          "id": "input"
        }
      ], 
      "required_cores": null, 
      "outputs": [], 
      "tool": [
        "fastr.Sink", 
        "1.0"
      ], 
      "required_time": null, 
      "class": "SinkNode", 
      "required_memory": null, 
      "url": null, 
      "id": "sink"
    }
  ], 
  "description": "", 
  "stepids": {}, 
  "id": "shift_links", 
  "preferred_types": [], 
  "nodegroups": {
    "source": [
      "source"
    ], 
    "add": [
      "add"
    ], 
    "const_add_left_hand_1": [
      "const_add_left_hand_1"
    ], 
    "const_add_right_hand_0": [
      "const_add_right_hand_0"
    ]
  }, 
  "namespace": null, 
  "filename": null, 
  "linklist": [
    {
      "expand": false, 
      "source": "fastr:///networks/shift_links/nodelist/add/outputs/result", 
      "id": "link_3", 
      "collapse": [], 
      "target": "fastr:///networks/shift_links/nodelist/sink/inputs/input/0"
    }, 
    {
      "expand": false, 
      "source": "fastr:///networks/shift_links/nodelist/const_add_right_hand_0/outputs/output", 
      "id": "link_2", 
      "collapse": [], 
      "target": "fastr:///networks/shift_links/nodelist/add/inputs/right_hand/0"
    }, 
    {
      "expand": false, 
      "source": "fastr:///networks/shift_links/nodelist/const_add_left_hand_1/outputs/output", 
      "id": "link_1", 
      "collapse": [], 
      "target": "fastr:///networks/shift_links/nodelist/add/inputs/left_hand/1"
    }, 
    {
      "expand": false, 
      "source": "fastr:///networks/shift_links/nodelist/source/outputs/output", 
      "id": "link_0", 
      "collapse": [], 
      "target": "fastr:///networks/shift_links/nodelist/add/inputs/left_hand/0"
    }
  ], 
  "version": "0.0", 
  "node_number": 5
}