{
  "id": "macro_node_2",
  "version": "0.0",
  "filename": "/home/hachterberg/dev/fastr/fastr/fastr/api/__init__.py",
  "description": "",
  "link_number": 6,
  "node_number": 7,
  "nodelist": [
    {
      "id": "addint",
      "nodegroup": null,
      "class": "Node",
      "inputs": [
        {
          "id": "left_hand",
          "datatype": "Int",
          "input_group": "default"
        },
        {
          "id": "right_hand",
          "datatype": "Int",
          "input_group": "right"
        }
      ],
      "outputs": [
        {
          "id": "result",
          "datatype": "Int",
          "suboutputs": [],
          "preferred_types": []
        }
      ],
      "tool": [
        "fastr.math.AddInt",
        "0.1"
      ],
      "resources": {
        "cores": null,
        "memory": null,
        "time": null
      },
      "merge_dimensions": "none"
    },
    {
      "id": "source_1",
      "nodegroup": null,
      "class": "SourceNode",
      "inputs": [],
      "outputs": [
        {
          "id": "output",
          "datatype": "Int",
          "suboutputs": [],
          "preferred_types": []
        }
      ],
      "tool": [
        "fastr.Source",
        "1.0"
      ],
      "resources": {
        "cores": null,
        "memory": null,
        "time": null
      },
      "merge_dimensions": "none"
    },
    {
      "id": "source_2",
      "nodegroup": null,
      "class": "SourceNode",
      "inputs": [],
      "outputs": [
        {
          "id": "output",
          "datatype": "Int",
          "suboutputs": [],
          "preferred_types": []
        }
      ],
      "tool": [
        "fastr.Source",
        "1.0"
      ],
      "resources": {
        "cores": null,
        "memory": null,
        "time": null
      },
      "merge_dimensions": "none"
    },
    {
      "id": "source_3",
      "nodegroup": null,
      "class": "SourceNode",
      "inputs": [],
      "outputs": [
        {
          "id": "output",
          "datatype": "Int",
          "suboutputs": [],
          "preferred_types": []
        }
      ],
      "tool": [
        "fastr.Source",
        "1.0"
      ],
      "resources": {
        "cores": null,
        "memory": null,
        "time": null
      },
      "merge_dimensions": "none"
    },
    {
      "id": "node_add_multiple_ints_1",
      "nodegroup": null,
      "class": "MacroNode",
      "inputs": [],
      "outputs": [],
      "resources": null,
      "merge_dimensions": "none",
      "network": {
        "id": "add_ints_macro",
        "version": "0.0",
        "filename": "/home/hachterberg/dev/fastr/fastr/fastr/api/__init__.py",
        "description": "",
        "link_number": 3,
        "node_number": 4,
        "nodelist": [
          {
            "id": "macro_input_1",
            "nodegroup": null,
            "class": "SourceNode",
            "inputs": [],
            "outputs": [
              {
                "id": "output",
                "datatype": "Int",
                "suboutputs": [],
                "preferred_types": []
              }
            ],
            "tool": [
              "fastr.Source",
              "1.0"
            ],
            "resources": {
              "cores": null,
              "memory": null,
              "time": null
            },
            "merge_dimensions": "none"
          },
          {
            "id": "macro_input_2",
            "nodegroup": null,
            "class": "SourceNode",
            "inputs": [],
            "outputs": [
              {
                "id": "output",
                "datatype": "Int",
                "suboutputs": [],
                "preferred_types": []
              }
            ],
            "tool": [
              "fastr.Source",
              "1.0"
            ],
            "resources": {
              "cores": null,
              "memory": null,
              "time": null
            },
            "merge_dimensions": "none"
          },
          {
            "id": "addint1",
            "nodegroup": null,
            "class": "Node",
            "inputs": [
              {
                "id": "left_hand",
                "datatype": "Int",
                "input_group": "default"
              },
              {
                "id": "right_hand",
                "datatype": "Int",
                "input_group": "other"
              }
            ],
            "outputs": [
              {
                "id": "result",
                "datatype": "Int",
                "suboutputs": [],
                "preferred_types": []
              }
            ],
            "tool": [
              "fastr.math.AddInt",
              "0.1"
            ],
            "resources": {
              "cores": null,
              "memory": null,
              "time": null
            },
            "merge_dimensions": "none"
          },
          {
            "id": "macro_sink",
            "nodegroup": null,
            "class": "SinkNode",
            "inputs": [
              {
                "id": "input",
                "datatype": "Int",
                "input_group": "default"
              }
            ],
            "outputs": [],
            "tool": [
              "fastr.Sink",
              "1.0"
            ],
            "resources": {
              "cores": null,
              "memory": null,
              "time": null
            },
            "merge_dimensions": "none",
            "url": null
          }
        ],
        "linklist": [
          {
            "id": "link_0",
            "source": "fastr:///networks/add_ints_macro/0.0/nodelist/macro_input_1/outputs/output",
            "target": "fastr:///networks/add_ints_macro/0.0/nodelist/addint1/inputs/left_hand/0",
            "collapse": [],
            "expand": false
          },
          {
            "id": "link_1",
            "source": "fastr:///networks/add_ints_macro/0.0/nodelist/macro_input_2/outputs/output",
            "target": "fastr:///networks/add_ints_macro/0.0/nodelist/addint1/inputs/right_hand/0",
            "collapse": [],
            "expand": false
          },
          {
            "id": "link_2",
            "source": "fastr:///networks/add_ints_macro/0.0/nodelist/addint1/outputs/result",
            "target": "fastr:///networks/add_ints_macro/0.0/nodelist/macro_sink/inputs/input/0",
            "collapse": [],
            "expand": false
          }
        ],
        "preferred_types": [],
        "stepids": {},
        "namespace": null
      }
    },
    {
      "id": "sum",
      "nodegroup": null,
      "class": "Node",
      "inputs": [
        {
          "id": "values",
          "datatype": "Number",
          "input_group": "default"
        }
      ],
      "outputs": [
        {
          "id": "result",
          "datatype": "Number",
          "suboutputs": [],
          "preferred_types": []
        }
      ],
      "tool": [
        "fastr.math.Sum",
        "0.1"
      ],
      "resources": {
        "cores": null,
        "memory": null,
        "time": null
      },
      "merge_dimensions": "none"
    },
    {
      "id": "sink",
      "nodegroup": null,
      "class": "SinkNode",
      "inputs": [
        {
          "id": "input",
          "datatype": "Int",
          "input_group": "default"
        }
      ],
      "outputs": [],
      "tool": [
        "fastr.Sink",
        "1.0"
      ],
      "resources": {
        "cores": null,
        "memory": null,
        "time": null
      },
      "merge_dimensions": "none",
      "url": null
    }
  ],
  "linklist": [
    {
      "id": "link_0",
      "source": "fastr:///networks/macro_node_2/0.0/nodelist/source_1/outputs/output",
      "target": "fastr:///networks/macro_node_2/0.0/nodelist/addint/inputs/left_hand/0",
      "collapse": [],
      "expand": false
    },
    {
      "id": "link_1",
      "source": "fastr:///networks/macro_node_2/0.0/nodelist/source_2/outputs/output",
      "target": "fastr:///networks/macro_node_2/0.0/nodelist/addint/inputs/right_hand/0",
      "collapse": [],
      "expand": false
    },
    {
      "id": "link_2",
      "source": "fastr:///networks/macro_node_2/0.0/nodelist/addint/outputs/result",
      "target": "fastr:///networks/macro_node_2/0.0/nodelist/node_add_multiple_ints_1/inputs/macro_input_1/0",
      "collapse": [],
      "expand": false
    },
    {
      "id": "link_3",
      "source": "fastr:///networks/macro_node_2/0.0/nodelist/source_3/outputs/output",
      "target": "fastr:///networks/macro_node_2/0.0/nodelist/node_add_multiple_ints_1/inputs/macro_input_2/0",
      "collapse": [],
      "expand": false
    },
    {
      "id": "link_4",
      "source": "fastr:///networks/macro_node_2/0.0/nodelist/node_add_multiple_ints_1/outputs/macro_sink",
      "target": "fastr:///networks/macro_node_2/0.0/nodelist/sum/inputs/values/0",
      "collapse": [
        1
      ],
      "expand": false
    },
    {
      "id": "link_5",
      "source": "fastr:///networks/macro_node_2/0.0/nodelist/sum/outputs/result",
      "target": "fastr:///networks/macro_node_2/0.0/nodelist/sink/inputs/input/0",
      "collapse": [],
      "expand": false
    }
  ],
  "preferred_types": [],
  "stepids": {},
  "namespace": null
}