{
  "link_number": 2, 
  "nodelist": [
    {
      "merge_dimensions": "none", 
      "inputs": [], 
      "required_cores": null, 
      "outputs": [
        {
          "datatype": "TxtFile", 
          "suboutputs": [], 
          "preferred_types": [], 
          "id": "output"
        }
      ], 
      "tool": [
        "fastr.Source", 
        "1.0"
      ], 
      "required_time": null, 
      "class": "SourceNode", 
      "required_memory": null, 
      "id": "source"
    }, 
    {
      "merge_dimensions": "none", 
      "inputs": [
        {
          "datatype": "TxtFile", 
          "input_group": "default", 
          "id": "input_file"
        }
      ], 
      "required_cores": null, 
      "outputs": [
        {
          "datatype": "Directory", 
          "suboutputs": [], 
          "preferred_types": [], 
          "id": "directory"
        }, 
        {
          "datatype": "TxtFile", 
          "suboutputs": [], 
          "preferred_types": [], 
          "id": "output_file"
        }
      ], 
      "tool": [
        "fastr.util.PassThroughAuto", 
        "0.1"
      ], 
      "required_time": null, 
      "class": "Node", 
      "required_memory": null, 
      "id": "copy"
    }, 
    {
      "merge_dimensions": "none", 
      "inputs": [
        {
          "datatype": "TxtFile", 
          "input_group": "default", 
          "id": "input"
        }
      ], 
      "required_cores": null, 
      "outputs": [], 
      "tool": [
        "fastr.Sink", 
        "1.0"
      ], 
      "required_time": null, 
      "class": "SinkNode", 
      "required_memory": null, 
      "url": null, 
      "id": "sink"
    }
  ], 
  "description": "", 
  "stepids": {}, 
  "id": "file_copy", 
  "preferred_types": [], 
  "nodegroups": {
    "source": [
      "source"
    ], 
    "copy": [
      "copy"
    ]
  }, 
  "namespace": null, 
  "filename": null, 
  "linklist": [
    {
      "expand": false, 
      "source": "fastr:///networks/file_copy/nodelist/copy/outputs/output_file", 
      "id": "link_1", 
      "collapse": [], 
      "target": "fastr:///networks/file_copy/nodelist/sink/inputs/input/0"
    }, 
    {
      "expand": false, 
      "source": "fastr:///networks/file_copy/nodelist/source/outputs/output", 
      "id": "link_0", 
      "collapse": [], 
      "target": "fastr:///networks/file_copy/nodelist/copy/inputs/input_file/0"
    }
  ], 
  "version": "0.0", 
  "node_number": 3
}